{
  "manifest": {
    "publishingInformation": {
      "locales": {
        "en-AU": {
          "summary": "An audio streaming example skill.",
          "examplePhrases": [
            "Alexa, open Template Three",
            "Alexa, play Template Three",
            "Alexa, ask Template Three to play"
          ],
          "keywords": [
            "audio streaming",
            "music",
            "live music"
          ],
          "name": "Media General",
          "description": "A starter template for an Alexa audio streaming skill.",
          "smallIconUri": "https://s3.amazonaws.com/cdn.dabblelab.com/img/skill-template-default-sm.png",
          "largeIconUri": "https://s3.amazonaws.com/cdn.dabblelab.com/img/skill-template-default-lg.png"
        },
        "en-CA": {
          "summary": "An audio streaming example skill.",
          "examplePhrases": [
            "Alexa, open Template Three",
            "Alexa, play Template Three",
            "Alexa, ask Template Three to play"
          ],
          "keywords": [
            "audio streaming",
            "music",
            "live music"
          ],
          "name": "Media General",
          "description": "A starter template for an Alexa audio streaming skill.",
          "smallIconUri": "https://s3.amazonaws.com/cdn.dabblelab.com/img/skill-template-default-sm.png",
          "largeIconUri": "https://s3.amazonaws.com/cdn.dabblelab.com/img/skill-template-default-lg.png"
        },
        "en-GB": {
          "summary": "An audio streaming example skill.",
          "examplePhrases": [
            "Alexa, open Template Three",
            "Alexa, play Template Three",
            "Alexa, ask Template Three to play"
          ],
          "keywords": [
            "audio streaming",
            "music",
            "live music"
          ],
          "name": "Template 3 - Audio Streaming Example",
          "description": "A starter template for an Alexa audio streaming skill.",
          "smallIconUri": "https://s3.amazonaws.com/cdn.dabblelab.com/img/skill-template-default-sm.png",
          "largeIconUri": "https://s3.amazonaws.com/cdn.dabblelab.com/img/skill-template-default-lg.png"
        },
        "en-IN": {
          "summary": "An audio streaming example skill.",
          "examplePhrases": [
            "Alexa, open Template Three",
            "Alexa, play Template Three",
            "Alexa, ask Template Three to play"
          ],
          "keywords": [
            "audio streaming",
            "music",
            "live music"
          ],
          "name": "Media General",
          "description": "A starter template for an Alexa audio streaming skill.",
          "smallIconUri": "https://s3.amazonaws.com/cdn.dabblelab.com/img/skill-template-default-sm.png",
          "largeIconUri": "https://s3.amazonaws.com/cdn.dabblelab.com/img/skill-template-default-lg.png"
        },
        "en-US": {
          "summary": "An audio streaming example skill.",
          "examplePhrases": [
            "Alexa, open Template Three",
            "Alexa, play Template Three",
            "Alexa, ask Template Three to play"
          ],
          "keywords": [
            "audio streaming",
            "music",
            "live music"
          ],
          "name": "Media General",
          "description": "A starter template for an Alexa audio streaming skill.",
          "smallIconUri": "https://s3.amazonaws.com/cdn.dabblelab.com/img/skill-template-default-sm.png",
          "largeIconUri": "https://s3.amazonaws.com/cdn.dabblelab.com/img/skill-template-default-lg.png"
        }
      },
      "isAvailableWorldwide": true,
      "testingInstructions": "No special instructions",
      "category": "STREAMING_SERVICE",
      "distributionCountries": []
    },
    "apis": {
      "custom": {
        "endpoint": {
          "sourceDir": "lambda/custom"
        },
        "interfaces": [
          {
            "type": "AUDIO_PLAYER"
          }
        ]
      }
    },
    "manifestVersion": "1.0",
    "permissions": [],
    "privacyAndCompliance": {
      "allowsPurchases": false,
      "locales": {
        "en-US": {
          "termsOfUseUrl": "http://dabblelab.com/terms",
          "privacyPolicyUrl": "http://dabblelab.com/privacy"
        }
      },
      "isExportCompliant": true,
      "containsAds": false,
      "isChildDirected": false,
      "usesPersonalInfo": false
    }
  }
}
