{
  "interactionModel": {
      "languageModel": {
          "invocationName": "Change me",
          "intents": [
            {
                "name": "AMAZON.NavigateHomeIntent",
                "samples": [
      
                ]
              },
              {
                  "name": "PlayStreamIntent",
                  "slots": [],
                  "samples": [
                      "play Connect FM",
                      "to begin playing Connect FM",
                      "to start playing Connect FM",
                      "to play Connect FM"
                  ]
              },
              {
                  "name": "AboutIntent",
                  "slots": [],
                  "samples": [
                      "about",
                      "what is this",
                      "tell me about this"
                  ]
              },
              {
                  "name": "AMAZON.PauseIntent",
                  "samples": []
              },
              {
                  "name": "AMAZON.ResumeIntent",
                  "samples": []
              },
              {
                  "name": "AMAZON.StopIntent",
                  "samples": []
              },
              {
                  "name": "AMAZON.CancelIntent",
                  "samples": []
              },
              {
                  "name": "AMAZON.LoopOnIntent",
                  "samples": []
              },
              {
                  "name": "AMAZON.NextIntent",
                  "samples": []
              },
              {
                  "name": "AMAZON.PreviousIntent",
                  "samples": []
              },
              {
                  "name": "AMAZON.RepeatIntent",
                  "samples": []
              },
              {
                  "name": "AMAZON.ShuffleOnIntent",
                  "samples": []
              },
              {
                  "name": "AMAZON.StartOverIntent",
                  "samples": []
              },
              {
                  "name": "AMAZON.LoopOffIntent",
                  "samples": []
              },
              {
                  "name": "AMAZON.ShuffleOffIntent",
                  "samples": []
              },
              {
                  "name": "AMAZON.HelpIntent",
                  "samples": [
                      "help me",
                      "how does this work",
                      "what should i do"
                  ]
              },
              {
                  "name": "PlayThreeFMIntent",
                  "slots": [],
                  "samples": [
                      "to start playing three fm",
                      "to play three fm",
                      "to begin playing three fm",
                      "play three fm",
                      "and play three fm"
                  ]
              },
              {
                  "name": "PlayOnuaFMIntent",
                  "slots": [],
                  "samples": [
                      "play ONUA FM",
                      "to begin playing on fm",
                      "play on fm",
                      "play Onua fm",
                      "to begin playing Onua fm",
                      "to start playing Onua fm",
                      "to play Onua fm"
                  ]
              },
              {
                  "name": "PlayAkomaFMIntent",
                  "slots": [],
                  "samples": [
                      "play akuma fm",
                      "to play akuma fm",
                      "play Akoma fm",
                      "to begin playing akoma fm",
                      "to start playing Akoma fm",
                      "to play Akoma fm"
                  ]
              }
          ],
          "types": []
      }
  }
}